Date,Start,End,Subject,Note
1/11/14,19.12,20.35,Math,
3/11/14,13.02,21.49,Eng,
5/11/14,2.15,9.18,Eng,
7/11/14,4.11,12.31,Eng,
8/11/14,7.12,14.12,Com,
9/11/14,12.02,21.49,Com,
15/11/14,19.15,9.18,Eng,
17/11/14,20.11,12.31,Math,
20/11/14,11.12,14.12,Math,
22/11/14,16.02,21.49,Eng,
23/11/14,7.15,9.18,Eng,
25/11/14,12.11,12.31,Math,
27/11/14,9.12,14.12,Math,
